{
    "swagger": "2.0",
    "info": {
        "description": "This is the waitingapp api.",
        "title": "Waitingapp",
        "contact": {
            "name": "Lars Hick",
            "email": "lars.hick@eljoth.de"
        },
        "license": {
            "name": "Apache 2.0",
            "url": "http://www.apache.org/licenses/LICENSE-2.0.html"
        },
        "version": "1.0"
    },
    "host": "localhost:8080",
    "basePath": "/",
    "paths": {
        "/provider": {
            "post": {
                "description": "Post a new provider (register)",
                "consumes": [
                    "application/json"
                ],
                "produces": [
                    "application/json"
                ],
                "summary": "Post Provider",
                "operationId": "post-provider",
                "parameters": [
                    {
                        "description": "Provider Information",
                        "name": "id",
                        "in": "body",
                        "required": true,
                        "schema": {
                            "$ref": "#/definitions/entity.Provider"
                        }
                    }
                ],
                "responses": {
                    "204": {
                        "description": ""
                    },
                    "400": {
                        "description": ""
                    },
                    "500": {
                        "description": ""
                    }
                }
            }
        }
    },
    "definitions": {
        "entity.Provider": {
            "type": "object",
            "properties": {
                "category": {
                    "type": "string"
                },
                "city": {
                    "type": "string"
                },
                "coordinates": {
                    "type": "string"
                },
                "country": {
                    "type": "string"
                },
                "house_number": {
                    "type": "string"
                },
                "name": {
                    "type": "string"
                },
                "postal_code": {
                    "type": "string"
                },
                "street": {
                    "type": "string"
                }
            }
        }
    },
    "securityDefinitions": {
        "ApiKeyAuth": {
            "type": "apiKey",
            "name": "Authorization",
            "in": "header"
        }
    }
}